# Unigram
*1:%x[-3,0]
*2:%x[-2,0]
*3:%x[-1,0]
*4:%x[ 0,0]
*5:%x[ 1,0]
*6:%x[ 2,0]

# Bigram
*8:%x[-3,0]/%x[-2,0]
*9:%x[-2,0]/%x[-1,0]
*10:%x[-1,0]/%x[0,0]
*11:%x[-1,0]/%x[0,1]
*12:%x[0,1]/%x[1,0]

# Trigram
*13:%x[-1,0]/%x[0,0]/%x[1,0]
*14:%x[-2,0]/%x[-1,0]/%x[0,0]
*15:%x[0,0]/%x[1,0]/%x[2,0]

